A =

          0        -40        -85
         20          2         38
         15         39         -9

G =

          1          0          0
         -0          1          0
       -3/4          0          1

R =

         20          2         38
          0        -40        -85
          0       75/2      -75/2

G =

          1          0          0
          0          1          0
          0      16/15          1

R =

         20          2         38
          0       75/2      -75/2
          0          0       -125

L =

          1          0          0
        3/4          1          0
          0     -16/15          1

R =

         20          2         38
          0       75/2      -75/2
          0          0       -125

Pb_1 =

         40
         15
         30

z_1 =

         40
        -15
         14

x_1 =

    283/125
    -64/125
    -14/125

Pb_2 =

         10
         60
         20

z_2 =

         10
      105/2
         76

x_2 =

    197/125
     99/125
    -76/125

r =

          0
         20
         15

v =

        -25
         20
         15

v =

  -985/1393
  2575/4552
  2969/6998

S =

          0        4/5        3/5
        4/5       9/25     -12/25
        3/5     -12/25      16/25

R =

         25         25         25
          0        -50        -50
          0          0        -75

r =

          0
        -50
          0

v =

          0
       -100
          0

v =

          0
         -1
          0

S =

          1         -0         -0
         -0         -1         -0
         -0         -0          1

R =

         25         25         25
          0         50         50
          0          0        -75

Q =

          0       -4/5       -3/5
        4/5      -9/25      12/25
        3/5      12/25     -16/25

R =

         25         25         25
          0         50         50
          0          0         75

x1 =

    283/125
    -64/125
    -14/125

z1 =

         41
     -156/5
      -42/5

x1 =

    283/125
    -64/125
    -14/125

Ax1_b1 =

          0
          0
          0

x2 =

      96/25
       7/25
     -18/25

z2 =

         85
        -22
        -54

x2 =

      96/25
       7/25
     -18/25

Ax2_b2 =

          0
          0
          0

m =

   6.64770492165636E-04   1.60250816674340E+13
   1.66387880321192E-02   5.21900631455064E+14
   8.10364206404456E-01   1.60468930569533E+16
   3.23886334706935E+00   5.32063665269671E+17
   4.32454898208615E+01   2.79477378261865E+17
   3.92291071908934E+01   2.99936761192434E+17
   1.71656654677184E+01   1.52045188167377E+18
   2.15315068030640E+01   6.08357868000324E+17
   3.52771724681590E+01   6.11709242153952E+18
   1.92493832033363E+01   6.07985602046890E+18
   6.63061521378647E+01   2.44338863540501E+18
   5.27159497757197E+01   6.77800775322941E+19
   7.85781165240283E+01   1.45270439642940E+18
   8.57956838763146E+02   7.46255298292776E+17
   3.80629093736414E+02   7.28011156428292E+18
   1.98774607109355E+02   2.66621862733453E+19
   1.33746915583007E+03   1.46465457403912E+19
   7.19476922808214E+02   9.18153160726857E+18
   1.18108382378220E+02   3.94273826959557E+18
   1.57818203673811E+02   2.83452099426998E+20
   1.20148977746841E+02   3.79843757930860E+18

