### 4.1
x0 = 4
x1 = 4 - (4^4-16)/(4*4^3) = 3,0625
x2 = 3,0625 - (3,0625^4-16)/(4*3,0625^3) = 2,4361367022
x3 = 2,4361367022 - (2,4361367022^4-16)/(4*2,4361367022^3) = 2,1037680398
x4 = 2,1037680398 - (2,1037680398^4-16)/(4*2,1037680398^3) = 2,0074281659
x5 = 2,0074281659 - (2,0074281659^4-16)/(4*2,0074281659^3) = 2,0000411285
x6 = 2,0000411285 - (2,0000411285^4-16)/(4*2,0000411285^3) = 2,0000000013
x7 = 2,0000000013 - (2,0000000013^4-16)/(4*2,0000000013^3) = 2

### 4.2
f(-1) = -15
f(1) = -5
f(3) = 13
f(4) = 40

L(x) = l0(x) + l1(x) + l2(x) + l3(x)
x^3: -23/480
x^2: 3/10
x^1: -157/480
x^0: 23/40


l0(x) = (x-1)(x-3)(x-4)/((-1-1)(-1-3)(-1-4))
l1(x) = (x+1)(x-3)(x-4)/((1+1)(1-3)(1-4))
l2(x) = (x+1)(x-1)(x-4)/((3+1)(3-1)(3-4))
l3(x) = (x+1)(x-1)(x-3)/((4+1)(4-1)(4-3))

		x^3		x^2		x^1 		x^0
l0(x) =	-1/40	1/5		-19/40		3/10
l1(x) = 1/12	-1/2	5/12		1
l2(x) = -1/8	1/2		1/8			-1/2
l3(x) = 1/15 	-1/5 	-1/15 		1/5

-15*(x-1)(x-3)(x-4)/((-1-1)(-1-3)(-1-4))
-5*(x+1)(x-3)(x-4)/((1+1)(1-3)(1-4))
+13*(x+1)(x-1)(x-4)/((3+1)(3-1)(3-4)) 
+40*(x+1)(x-1)(x-3)/((4+1)(4-1)(4-3))
= 
x^3 - 2x^2 + 4x - 8

### 4.3
\begin{array}{crcrccrcrc}[x_0]f \\          & \searrow \\{}[x_1]f & \rightarrow  & [x_0,x_1]f  \\       & \searrow     &                & \searrow     \\{}[x_2]f & \rightarrow  & [x_1,x_2]f     & \rightarrow & [x_0,x_1,x_2]f \\{} \vdots & \vdots      & \vdots         & \vdots    & \vdots  &\ddots \\{}  & \searrow     &                & \searrow    & &              & \searrow \\{}[x_{n-1}]f & \rightarrow  & [x_{n-2},x_{n-1}]f & \rightarrow & [x_{n-3},x_{n-2},x_{n-1}]f   & \cdots & \rightarrow & [x_0\ldots x_{n-1}]f  \\  & \searrow     &                & \searrow    & &              & \searrow && \searrow\\{}[x_n]f & \rightarrow  & [x_{n-1},x_n]f & \rightarrow & [x_{n-2},x_{n-1},x_n]f   & \cdots & \rightarrow & [x_1\ldots x_n]f & \rightarrow & [x_0\ldots x_n]f\end{array}

7*1 -3*(x+3) -1*(x+3)(x+2) + 1*(x+3)(x+2)(x)
=
x^3 + 4x^2 - 2x - 8







### 4.6
n=2
x0 = 1/3
x1 = 2/3

A1 = Int[0,1](L1^(2))dx = L1^(1)(1) - L1^1(0)











